<?xml version="1.0" encoding="UTF-8" ?><?xml-stylesheet type="text/xsl" href="xsl/oaitohtml.xsl"?><OAI-PMH xmlns="http://www.openarchives.org/OAI/2.0/" xmlns:xsi="http://www.w3.org/2001/XMLSchema-instance" xsi:schemaLocation="http://www.openarchives.org/OAI/2.0/ http://www.openarchives.org/OAI/2.0/OAI-PMH.xsd"><responseDate>2015-12-16T11:18:05Z</responseDate><request metadataPrefix="dara" verb="ListRecords" set="37">http://www.da-ra.de/oaip</request><ListRecords>
<record><header><identifier>oai:oai.da-ra.de:287252</identifier><datestamp>2014-01-31T14:03:24Z</datestamp><setSpec>37</setSpec></header><metadata><resource>
  <resourceType>2</resourceType>
  <resourceIdentifier>
      <identifier>easy</identifier>
      <currentVersion>1001</currentVersion>
  </resourceIdentifier>
  <titles>
      <title>
         <language>de</language>
         <titleName>easySHARE</titleName>
      </title>
  </titles>
  <creators>
      <creator>
         <person>
            <firstName>Axel</firstName>
            <middleName/>
            <lastName>Börsch-Supan</lastName>
            <affiliation>
               <affiliationName>
                  <language>de</language>
                  <name>Max Planck Institute for Social Law and Social Policy</name>
               </affiliationName>
            </affiliation>
         </person>
      </creator>
      <creator>
         <person>
            <firstName>Christian</firstName>
            <middleName/>
            <lastName>Hunkler</lastName>
            <affiliation>
               <affiliationName>
                  <language>de</language>
                  <name>Max Planck Institute for Social Law and Social Policy</name>
               </affiliationName>
            </affiliation>
         </person>
      </creator>
      <creator>
         <person>
            <firstName>Stefan</firstName>
            <middleName/>
            <lastName>Gruber</lastName>
            <affiliation>
               <affiliationName>
                  <language>de</language>
                  <name>Max Planck Institute for Social Law and Social Policy</name>
               </affiliationName>
            </affiliation>
         </person>
      </creator>
      <creator>
         <person>
            <firstName>Agnes</firstName>
            <middleName/>
            <lastName>Orban</lastName>
            <affiliation>
               <affiliationName>
                  <language>de</language>
                  <name>University of Cologne</name>
               </affiliationName>
            </affiliation>
         </person>
      </creator>
      <creator>
         <person>
            <firstName>Stephanie</firstName>
            <middleName/>
            <lastName>Stuck</lastName>
            <affiliation>
               <affiliationName>
                  <language>de</language>
                  <name>Max Planck Institute for Social Law and Social Policy</name>
               </affiliationName>
            </affiliation>
         </person>
      </creator>
      <creator>
         <person>
            <firstName>Martina</firstName>
            <middleName/>
            <lastName>Brandt</lastName>
            <affiliation>
               <affiliationName>
                  <language>de</language>
                  <name>Max Planck Institute for Social Law and Social Policy</name>
               </affiliationName>
            </affiliation>
         </person>
      </creator>
  </creators>
  <dataURLs>
      <dataURL>http://www.share-project.org/data-access-documentation.html</dataURL>
  </dataURLs>
  <doiProposal>10.6103/SHARE.easy.100</doiProposal>
  <publicationDate>
      <date>2013-11-29</date>
  </publicationDate>
  <availability>
      <availabilityControlled>1</availabilityControlled>
  </availability>
  <resourceLanguage>eng</resourceLanguage>
</resource></metadata></record>
<record><header><identifier>oai:oai.da-ra.de:287253</identifier><datestamp>2014-01-31T14:43:39Z</datestamp><setSpec>37</setSpec></header><metadata><resource>
  <resourceType>2</resourceType>
  <resourceIdentifier>
      <identifier>jep</identifier>
      <currentVersion>1001</currentVersion>
  </resourceIdentifier>
  <titles>
      <title>
         <language>de</language>
         <titleName>SHARE Job Episodes Panel</titleName>
      </title>
  </titles>
  <creators>
      <creator>
         <person>
            <firstName>Agar</firstName>
            <middleName/>
            <lastName>Brugiavini</lastName>
            <affiliation>
               <affiliationName>
                  <language>de</language>
                  <name>Ca' Foscari University of Venice</name>
               </affiliationName>
            </affiliation>
         </person>
      </creator>
      <creator>
         <person>
            <firstName>Danilo</firstName>
            <middleName/>
            <lastName>Cavapozzi</lastName>
            <affiliation>
               <affiliationName>
                  <language>de</language>
                  <name>Ca' Foscari University of Venice</name>
               </affiliationName>
            </affiliation>
         </person>
      </creator>
      <creator>
         <person>
            <firstName>Giacomo</firstName>
            <middleName/>
            <lastName>Pasini</lastName>
            <affiliation>
               <affiliationName>
                  <language>de</language>
                  <name>Ca' Foscari University of Venice</name>
               </affiliationName>
            </affiliation>
         </person>
      </creator>
      <creator>
         <person>
            <firstName>Elisabetta</firstName>
            <middleName/>
            <lastName>Trevisan</lastName>
            <affiliation>
               <affiliationName>
                  <language>de</language>
                  <name>University of Padua</name>
               </affiliationName>
            </affiliation>
         </person>
      </creator>
  </creators>
  <dataURLs>
      <dataURL>http://www.share-project.org/data-access-documentation.html</dataURL>
  </dataURLs>
  <doiProposal>10.6103/SHARE.jep.100</doiProposal>
  <publicationDate>
      <date>2013-03-28</date>
  </publicationDate>
  <availability>
      <availabilityControlled>1</availabilityControlled>
  </availability>
  <resourceLanguage>eng</resourceLanguage>
</resource></metadata></record>
<record><header><identifier>oai:oai.da-ra.de:287256</identifier><datestamp>2014-01-31T15:42:22Z</datestamp><setSpec>37</setSpec></header><metadata><resource>
  <resourceType>2</resourceType>
  <resourceIdentifier>
      <identifier>w4</identifier>
      <currentVersion>1111</currentVersion>
  </resourceIdentifier>
  <titles>
      <title>
         <language>de</language>
         <titleName>Survey of Health, Ageing and Retirement in Europe (SHARE) Wave 4</titleName>
      </title>
  </titles>
  <creators>
      <creator>
         <person>
            <firstName>Axel</firstName>
            <middleName/>
            <lastName>Börsch-Supan</lastName>
            <affiliation>
               <affiliationName>
                  <language>de</language>
                  <name>Max Planck Institute for Social Law and Social Policy</name>
               </affiliationName>
            </affiliation>
         </person>
      </creator>
  </creators>
  <dataURLs>
      <dataURL>http://www.share-project.org/data-access-documentation.html</dataURL>
  </dataURLs>
  <doiProposal>10.6103/SHARE.w4.111</doiProposal>
  <publicationDate>
      <date>2013-03-28</date>
  </publicationDate>
  <availability>
      <availabilityControlled>1</availabilityControlled>
  </availability>
  <resourceLanguage>eng</resourceLanguage>
</resource></metadata></record>
<record><header><identifier>oai:oai.da-ra.de:287257</identifier><datestamp>2014-01-31T15:48:24Z</datestamp><setSpec>37</setSpec></header><metadata><resource>
  <resourceType>2</resourceType>
  <resourceIdentifier>
      <identifier>w3</identifier>
      <currentVersion>1001</currentVersion>
  </resourceIdentifier>
  <titles>
      <title>
         <language>de</language>
         <titleName>Survey of Health, Ageing and Retirement in Europe (SHARE) Wave 3 - SHARELIFE</titleName>
      </title>
  </titles>
  <creators>
      <creator>
         <person>
            <firstName>Axel</firstName>
            <middleName/>
            <lastName>Börsch-Supan</lastName>
            <affiliation>
               <affiliationName>
                  <language>de</language>
                  <name>Max Planck Institute for Social Law and Social Policy</name>
               </affiliationName>
            </affiliation>
         </person>
      </creator>
  </creators>
  <dataURLs>
      <dataURL>http://www.share-project.org/data-access-documentation.html</dataURL>
  </dataURLs>
  <doiProposal>10.6103/SHARE.w3.100</doiProposal>
  <publicationDate>
      <date>2010-11-24</date>
  </publicationDate>
  <availability>
      <availabilityControlled>1</availabilityControlled>
  </availability>
  <resourceLanguage>eng</resourceLanguage>
</resource></metadata></record>
<record><header><identifier>oai:oai.da-ra.de:287258</identifier><datestamp>2014-01-31T15:52:21Z</datestamp><setSpec>37</setSpec></header><metadata><resource>
  <resourceType>2</resourceType>
  <resourceIdentifier>
      <identifier>w2</identifier>
      <currentVersion>2601</currentVersion>
  </resourceIdentifier>
  <titles>
      <title>
         <language>de</language>
         <titleName>Survey of Health, Ageing and Retirement in Europe (SHARE) Wave 2</titleName>
      </title>
  </titles>
  <creators>
      <creator>
         <person>
            <firstName>Axel</firstName>
            <middleName/>
            <lastName>Börsch-Supan</lastName>
            <affiliation>
               <affiliationName>
                  <language>de</language>
                  <name>Max Planck Institute for Social Law and Social Policy</name>
               </affiliationName>
            </affiliation>
         </person>
      </creator>
  </creators>
  <dataURLs>
      <dataURL>http://www.share-project.org/data-access-documentation.html</dataURL>
  </dataURLs>
  <doiProposal>10.6103/SHARE.w2.260</doiProposal>
  <publicationDate>
      <date>2013-11-29</date>
  </publicationDate>
  <availability>
      <availabilityControlled>1</availabilityControlled>
  </availability>
  <resourceLanguage>eng</resourceLanguage>
</resource></metadata></record>
<record><header><identifier>oai:oai.da-ra.de:287259</identifier><datestamp>2014-01-31T16:21:03Z</datestamp><setSpec>37</setSpec></header><metadata><resource>
  <resourceType>2</resourceType>
  <resourceIdentifier>
      <identifier>w1</identifier>
      <currentVersion>2601</currentVersion>
  </resourceIdentifier>
  <titles>
      <title>
         <language>de</language>
         <titleName>Survey of Health, Ageing and Retirement in Europe (SHARE) Wave 1</titleName>
      </title>
  </titles>
  <creators>
      <creator>
         <person>
            <firstName>Axel</firstName>
            <middleName/>
            <lastName>Börsch-Supan</lastName>
            <affiliation>
               <affiliationName>
                  <language>de</language>
                  <name>Max Planck Institute for Social Law and Social Policy</name>
               </affiliationName>
            </affiliation>
         </person>
      </creator>
  </creators>
  <dataURLs>
      <dataURL>http://www.share-project.org/data-access-documentation.html</dataURL>
  </dataURLs>
  <doiProposal>10.6103/SHARE.w1.260</doiProposal>
  <publicationDate>
      <date>2013-11-29</date>
  </publicationDate>
  <availability>
      <availabilityControlled>1</availabilityControlled>
  </availability>
  <resourceLanguage>eng</resourceLanguage>
</resource></metadata></record>
<record><header><identifier>oai:oai.da-ra.de:287963</identifier><datestamp>2014-03-03T09:46:22Z</datestamp><setSpec>37</setSpec></header><metadata><resource>
  <resourceType>2</resourceType>
  <resourceIdentifier>
      <identifier>RV</identifier>
      <currentVersion>2001</currentVersion>
  </resourceIdentifier>
  <titles>
      <title>
         <language>de</language>
         <titleName>SHARE-RV</titleName>
      </title>
  </titles>
  <creators>
      <creator>
         <institution>
            <institutionName>
               <language>de</language>
               <name>Forschungsdatenzentrum der Rentenversicherung</name>
            </institutionName>
         </institution>
      </creator>
      <creator>
         <institution>
            <institutionName>
               <language>de</language>
               <name>Max-Planck-Institut für Sozialrecht und Sozialpolitik</name>
            </institutionName>
         </institution>
      </creator>
  </creators>
  <dataURLs>
      <dataURL>http://www.share-project.org/data-access-documentation.html</dataURL>
  </dataURLs>
  <doiProposal>10.6103/SHARE.SHARE-RV.200</doiProposal>
  <publicationDate>
      <date>2014-03-03</date>
  </publicationDate>
  <availability>
      <availabilityControlled>2</availabilityControlled>
  </availability>
  <resourceLanguage>ger</resourceLanguage>
</resource></metadata></record>
<record><header><identifier>oai:oai.da-ra.de:297498</identifier><datestamp>2014-08-14T13:41:36Z</datestamp><setSpec>37</setSpec></header><metadata><resource>
  <resourceType>2</resourceType>
  <resourceIdentifier>
      <identifier>jep</identifier>
      <currentVersion>2001</currentVersion>
  </resourceIdentifier>
  <titles>
      <title>
         <language>de</language>
         <titleName>SHARE Job Episodes Panel</titleName>
      </title>
  </titles>
  <creators>
      <creator>
         <person>
            <firstName>Liudmila</firstName>
            <middleName/>
            <lastName>Antonova</lastName>
            <affiliation>
               <affiliationName>
                  <language>de</language>
                  <name>Ca' Foscari University of Venice</name>
               </affiliationName>
            </affiliation>
         </person>
      </creator>
      <creator>
         <person>
            <firstName>Luis</firstName>
            <middleName/>
            <lastName>Aranda</lastName>
            <affiliation>
               <affiliationName>
                  <language>de</language>
                  <name>Ca' Foscari University of Venice</name>
               </affiliationName>
            </affiliation>
         </person>
      </creator>
      <creator>
         <person>
            <firstName>Agar</firstName>
            <middleName/>
            <lastName>Brugiavini</lastName>
            <affiliation>
               <affiliationName>
                  <language>de</language>
                  <name>Ca' Foscari University of Venice</name>
               </affiliationName>
            </affiliation>
         </person>
      </creator>
      <creator>
         <person>
            <firstName>Danilo</firstName>
            <middleName/>
            <lastName>Cavapozzi</lastName>
            <affiliation>
               <affiliationName>
                  <language>de</language>
                  <name>Ca' Foscari University of Venice</name>
               </affiliationName>
            </affiliation>
         </person>
      </creator>
      <creator>
         <person>
            <firstName>Giacomo</firstName>
            <middleName/>
            <lastName>Pasini</lastName>
            <affiliation>
               <affiliationName>
                  <language>de</language>
                  <name>Ca' Foscari University of Venice</name>
               </affiliationName>
            </affiliation>
         </person>
      </creator>
      <creator>
         <person>
            <firstName>Elisabetta</firstName>
            <middleName/>
            <lastName>Trevisan</lastName>
            <affiliation>
               <affiliationName>
                  <language>de</language>
                  <name>University of Padua</name>
               </affiliationName>
            </affiliation>
         </person>
      </creator>
  </creators>
  <dataURLs>
      <dataURL>http://www.share-project.org/data-access-documentation.html</dataURL>
  </dataURLs>
  <doiProposal>10.6103/SHARE.jep.200</doiProposal>
  <publicationDate>
      <date>2014-08-13</date>
  </publicationDate>
  <availability>
      <availabilityControlled>1</availabilityControlled>
  </availability>
  <resourceLanguage>eng</resourceLanguage>
</resource></metadata></record>
<record><header><identifier>oai:oai.da-ra.de:430643</identifier><datestamp>2015-03-31T09:18:22Z</datestamp><setSpec>37</setSpec></header><metadata><resource>
  <resourceType>2</resourceType>
  <resourceIdentifier>
      <identifier>RV</identifier>
      <currentVersion>3001</currentVersion>
  </resourceIdentifier>
  <titles>
      <title>
         <language>de</language>
         <titleName>SHARE-RV</titleName>
      </title>
  </titles>
  <creators>
      <creator>
         <institution>
            <institutionName>
               <language>de</language>
               <name>Forschungsdatenzentrum der Rentenversicherung</name>
            </institutionName>
         </institution>
      </creator>
      <creator>
         <institution>
            <institutionName>
               <language>de</language>
               <name>Max-Planck-Institut für Sozialrecht und Sozialpolitik</name>
            </institutionName>
         </institution>
      </creator>
  </creators>
  <dataURLs>
      <dataURL>http://www.share-project.org/data-access-documentation.html</dataURL>
  </dataURLs>
  <doiProposal>10.6103/SHARE.SHARE-RV.300</doiProposal>
  <publicationDate>
      <date>2015-03-31</date>
  </publicationDate>
  <availability>
      <availabilityControlled>2</availabilityControlled>
  </availability>
  <resourceLanguage>ger</resourceLanguage>
</resource></metadata></record>
<record><header><identifier>oai:oai.da-ra.de:430644</identifier><datestamp>2015-03-31T09:28:04Z</datestamp><setSpec>37</setSpec></header><metadata><resource>
  <resourceType>2</resourceType>
  <resourceIdentifier>
      <identifier>w5</identifier>
      <currentVersion>1001</currentVersion>
  </resourceIdentifier>
  <titles>
      <title>
         <language>de</language>
         <titleName>Survey of Health, Ageing and Retirement in Europe (SHARE) Wave 5</titleName>
      </title>
  </titles>
  <creators>
      <creator>
         <person>
            <firstName>Axel</firstName>
            <middleName/>
            <lastName>Börsch-Supan</lastName>
            <affiliation>
               <affiliationName>
                  <language>de</language>
                  <name>Max Planck Institute for Social Law and Social Policy</name>
               </affiliationName>
            </affiliation>
         </person>
      </creator>
  </creators>
  <dataURLs>
      <dataURL>http://www.share-project.org/data-access-documentation.html</dataURL>
  </dataURLs>
  <doiProposal>10.6103/SHARE.w5.100</doiProposal>
  <publicationDate>
      <date>2015-03-31</date>
  </publicationDate>
  <availability>
      <availabilityControlled>1</availabilityControlled>
  </availability>
  <resourceLanguage>eng</resourceLanguage>
</resource></metadata></record>
<record><header><identifier>oai:oai.da-ra.de:433273</identifier><datestamp>2015-06-15T12:32:09Z</datestamp><setSpec>37</setSpec></header><metadata><resource>
  <resourceType>2</resourceType>
  <resourceIdentifier>
      <identifier>easy</identifier>
      <currentVersion>2001</currentVersion>
  </resourceIdentifier>
  <titles>
      <title>
         <language>de</language>
         <titleName>easySHARE</titleName>
      </title>
  </titles>
  <creators>
      <creator>
         <person>
            <firstName>Axel</firstName>
            <middleName/>
            <lastName>Börsch-Supan</lastName>
            <affiliation>
               <affiliationName>
                  <language>de</language>
                  <name>Max Planck Institute for Social Law and Social Policy</name>
               </affiliationName>
            </affiliation>
         </person>
      </creator>
      <creator>
         <person>
            <firstName>Christian</firstName>
            <middleName/>
            <lastName>Hunkler</lastName>
            <affiliation>
               <affiliationName>
                  <language>de</language>
                  <name>Max Planck Institute for Social Law and Social Policy</name>
               </affiliationName>
            </affiliation>
         </person>
      </creator>
      <creator>
         <person>
            <firstName>Stefan</firstName>
            <middleName/>
            <lastName>Gruber</lastName>
            <affiliation>
               <affiliationName>
                  <language>de</language>
                  <name>Max Planck Institute for Social Law and Social Policy</name>
               </affiliationName>
            </affiliation>
         </person>
      </creator>
      <creator>
         <person>
            <firstName>Agnes</firstName>
            <middleName/>
            <lastName>Orban</lastName>
            <affiliation>
               <affiliationName>
                  <language>de</language>
                  <name>University of Cologne</name>
               </affiliationName>
            </affiliation>
         </person>
      </creator>
      <creator>
         <person>
            <firstName>Stephanie</firstName>
            <middleName/>
            <lastName>Stuck</lastName>
            <affiliation>
               <affiliationName>
                  <language>de</language>
                  <name>Max Planck Institute for Social Law and Social Policy</name>
               </affiliationName>
            </affiliation>
         </person>
      </creator>
      <creator>
         <person>
            <firstName>Jana</firstName>
            <middleName/>
            <lastName>Neumann</lastName>
            <affiliation>
               <affiliationName>
                  <language>de</language>
                  <name>Max Planck Institute for Social Law and Social Policy</name>
               </affiliationName>
            </affiliation>
         </person>
      </creator>
      <creator>
         <person>
            <firstName>Martina</firstName>
            <middleName/>
            <lastName>Brandt</lastName>
            <affiliation>
               <affiliationName>
                  <language>de</language>
                  <name>Technical University of Dortmund</name>
               </affiliationName>
            </affiliation>
         </person>
      </creator>
  </creators>
  <dataURLs>
      <dataURL>http://www.share-project.org/data-access-documentation.html</dataURL>
  </dataURLs>
  <doiProposal>10.6103/SHARE.easy.200</doiProposal>
  <publicationDate>
      <date>2015-06-15</date>
  </publicationDate>
  <availability>
      <availabilityControlled>1</availabilityControlled>
  </availability>
  <resourceLanguage>eng</resourceLanguage>
</resource></metadata></record>
<resumptionToken expirationDate="2015-12-16T12:18:05Z" completeListSize="11" cursor="0"></resumptionToken></ListRecords></OAI-PMH>